{
    "name": "2D-Platformer-Hunter.Editor",
    "references": [
        "GUID:6ea440d6dd8e2e84180805cffa203dc8"
    ],
    "includePlatforms": [
        "Editor"
    ],
    "excludePlatforms": [],
    "allowUnsafeCode": false,
    "overrideReferences": false,
    "precompiledReferences": [
        ""
    ],
    "autoReferenced": true,
    "defineConstraints": [],
    "versionDefines": [],
    "noEngineReferences": false
}