%YAML 1.1
%TAG !u! tag:unity3d.com,2011:
--- !u!74 &7400000
AnimationClip:
  m_ObjectHideFlags: 0
  m_CorrespondingSourceObject: {fileID: 0}
  m_PrefabInstance: {fileID: 0}
  m_PrefabAsset: {fileID: 0}
  m_Name: APH Attack 2
  serializedVersion: 6
  m_Legacy: 0
  m_Compressed: 0
  m_UseHighQualityCurve: 1
  m_RotationCurves: []
  m_CompressedRotationCurves: []
  m_EulerCurves: []
  m_PositionCurves: []
  m_ScaleCurves: []
  m_FloatCurves: []
  m_PPtrCurves:
  - curve:
    - time: 0
      value: {fileID: 5394183733801526263, guid: e3f93af73ba46d74ba389a504d8cefa4,
        type: 3}
    - time: 0.1
      value: {fileID: 2121196686736080109, guid: e3f93af73ba46d74ba389a504d8cefa4,
        type: 3}
    - time: 0.2
      value: {fileID: 1460603255664568255, guid: e3f93af73ba46d74ba389a504d8cefa4,
        type: 3}
    - time: 0.3
      value: {fileID: 6743096067385053398, guid: e3f93af73ba46d74ba389a504d8cefa4,
        type: 3}
    - time: 0.4
      value: {fileID: -2549233721657181880, guid: e3f93af73ba46d74ba389a504d8cefa4,
        type: 3}
    - time: 0.5
      value: {fileID: 7081805965666925738, guid: e3f93af73ba46d74ba389a504d8cefa4,
        type: 3}
    attribute: m_Sprite
    path: Graphics/Sprite
    classID: 212
    script: {fileID: 0}
  m_SampleRate: 10
  m_WrapMode: 0
  m_Bounds:
    m_Center: {x: 0, y: 0, z: 0}
    m_Extent: {x: 0, y: 0, z: 0}
  m_ClipBindingConstant:
    genericBindings:
    - serializedVersion: 2
      path: 1079350252
      attribute: 0
      script: {fileID: 0}
      typeID: 212
      customType: 23
      isPPtrCurve: 1
    pptrCurveMapping:
    - {fileID: 5394183733801526263, guid: e3f93af73ba46d74ba389a504d8cefa4, type: 3}
    - {fileID: 2121196686736080109, guid: e3f93af73ba46d74ba389a504d8cefa4, type: 3}
    - {fileID: 1460603255664568255, guid: e3f93af73ba46d74ba389a504d8cefa4, type: 3}
    - {fileID: 6743096067385053398, guid: e3f93af73ba46d74ba389a504d8cefa4, type: 3}
    - {fileID: -2549233721657181880, guid: e3f93af73ba46d74ba389a504d8cefa4, type: 3}
    - {fileID: 7081805965666925738, guid: e3f93af73ba46d74ba389a504d8cefa4, type: 3}
  m_AnimationClipSettings:
    serializedVersion: 2
    m_AdditiveReferencePoseClip: {fileID: 0}
    m_AdditiveReferencePoseTime: 0
    m_StartTime: 0
    m_StopTime: 0.6
    m_OrientationOffsetY: 0
    m_Level: 0
    m_CycleOffset: 0
    m_HasAdditiveReferencePose: 0
    m_LoopTime: 0
    m_LoopBlend: 0
    m_LoopBlendOrientation: 0
    m_LoopBlendPositionY: 0
    m_LoopBlendPositionXZ: 0
    m_KeepOriginalOrientation: 0
    m_KeepOriginalPositionY: 1
    m_KeepOriginalPositionXZ: 0
    m_HeightFromFeet: 0
    m_Mirror: 0
  m_EditorCurves: []
  m_EulerEditorCurves: []
  m_HasGenericRootTransform: 0
  m_HasMotionFloatCurves: 0
  m_Events:
  - time: 0.3
    functionName: OnAnimationEventMelee
    data: 
    objectReferenceParameter: {fileID: 0}
    floatParameter: 0
    intParameter: 0
    messageOptions: 0
